ID,agentTime,agentX,agentY,agentLAMBDA
0,0,3750,4995,0.8405604297913298
1,0,4847,7781,0.6493970929398251
2,0,5016,7781,0.17760219139669486
3,0,4756,7781,0.8053470418685709
4,0,4772,7781,0.40361127573091204
5,0,5004,7425,0.7035731195209667
