ID,agentTime,agentX,agentY,agentLAMBDA
0,0,4488,7490,0.4429802468275885
1,0,5184,6711,0.6426971034611791
2,0,5045,6520,0.2539709245149163
3,0,5066,6711,0.8332308954387746
4,0,5049,6525,0.22113873225020808
5,0,5041,6593,0.4338151015590459
6,0,5184,6711,0.47600438358438135
7,0,5157,6579,0.35333638590356664
8,0,4909,6711,0.5356914647930077
9,0,5184,6711,0.8637737312341647
10,0,5184,6711,0.8242929783343691
11,0,5184,6551,0.6805835954795374
12,0,5184,6472,0.28937477954349256
13,0,5184,6525,0.20779365250939397
14,0,4956,4463,0.4404154491252755
15,0,4596,4675,0.1811816789201094
16,0,4802,4786,0.58904390237536
17,0,4956,4538,0.7099465693507087
18,0,4855,4786,0.5279646040549631
19,0,4703,4594,0.12143435761301857
20,0,4888,4786,0.578787055819692
21,0,4755,4440,0.8100893742011535
22,0,5295,7303,0.6999711442690083
23,0,5295,7600,0.5619812492736288
24,0,5449,3727,0.7098984204509049
25,0,5449,3374,0.23450945102663
26,0,5413,3727,0.17762444952633605
27,0,5449,3727,0.1634101160135799
28,0,5449,3727,0.8326896669098452
29,0,5079,3727,0.3155142854113351
30,0,4830,4859,0.2720160205749834
31,0,4830,4598,0.24308678399744743
32,0,4636,4920,0.8400819468483586
33,0,4830,4920,0.31717036073797844
34,0,4782,7842,0.6326620108500798
35,0,4898,7750,0.6536716227604161
36,0,4569,7662,0.6213295448900432
37,0,4898,7606,0.19480810363651402
38,0,4475,5090,0.6913581662809432
39,0,5014,5174,0.6868066168861805
40,0,5105,5174,0.5999326575455548
41,0,4769,4189,0.7115963229892079
42,0,4769,4189,0.783351116771432
43,0,4620,4189,0.8081729571086154
44,0,4769,3937,0.11893366408143469
45,0,5210,7712,0.49556854625651636
46,0,4901,7380,0.1869749468489198
47,0,5210,7658,0.23004106600903806
