ID,agentTime,agentX,agentY,agentLAMBDA
0,0,3330,5066,0.6223355655776649
1,0,4931,7447,0.4113946273948056
2,0,4656,7637,0.7895187742302799
3,0,4905,4049,0.7770513858030931
4,0,5200,3903,0.86717261395234
5,0,4995,3787,0.7585122069890136
6,0,4533,5354,0.7651736224994792
