ID,agentTime,agentX,agentY,agentLAMBDA
0,0,5202,4050,0.6793712418331675
1,0,5202,4346,0.23057403002569965
2,0,5078,4346,0.24966409031586545
3,0,4682,4758,0.3948248650091205
4,0,4606,4793,0.1189629566341931
5,0,4349,4753,0.8808202511808413
6,0,4598,4584,0.663420796745918
7,0,4346,4793,0.4620579794924866
8,0,4682,4793,0.5958941849481297
9,0,4682,4762,0.34720842523296114
10,0,4682,4793,0.574631357804876
11,0,4682,4398,0.73746281040841
12,0,3536,5327,0.300127192056029
13,0,3636,5327,0.6086140630693635
14,0,3636,5327,0.8195577027884132
15,0,3636,5327,0.7623547585921945
16,0,4749,7750,0.6801048173189407
17,0,4788,7647,0.6913083775620291
18,0,4647,7750,0.36912979137279844
19,0,4898,7750,0.3825833417219908
20,0,4769,7750,0.2169136220931972
21,0,4843,6711,0.3096799130688431
22,0,5084,6531,0.5508671758158561
23,0,5184,6400,0.8398395720448358
24,0,4838,6329,0.7650414707469672
25,0,5184,6711,0.10912301265050695
26,0,5018,6711,0.6024829220596879
27,0,4879,6325,0.5521414633125316
28,0,5097,6531,0.4304528581584075
29,0,4970,6582,0.43046800713822697
30,0,5184,6588,0.7419890443464341
31,0,5004,6711,0.18444222838732727
32,0,5184,6711,0.5708461620199974
33,0,5184,6711,0.8257068021709805
34,0,5184,6660,0.7146954363848217
35,0,4752,4306,0.4323053841731058
36,0,4752,4255,0.43937223390252567
37,0,4752,4643,0.16062343875893215
38,0,4525,4399,0.1141897107198171
39,0,4706,4362,0.36590159534934996
40,0,4730,4643,0.587937989350483
41,0,4638,4313,0.5686310327749796
42,0,4752,4643,0.3594543137819789
43,0,5449,3494,0.38819420003520344
44,0,4798,7630,0.17680604571523117
45,0,4786,7630,0.8903371171318059
46,0,4666,7630,0.5994379544387434
47,0,4699,7576,0.42064026242376973
48,0,5354,7736,0.6663566872609069
49,0,5200,8020,0.2017424811025058
50,0,5161,8020,0.6914446662756384
51,0,5173,8020,0.6690887773107246
52,0,5354,8020,0.10536021743979951
53,0,5354,8020,0.14481562837289708
54,0,5354,8020,0.15063989316902315
55,0,5257,8020,0.15714983891111434
56,0,5354,7779,0.21578823788929635
57,0,5354,7775,0.13914960570644508
58,0,5259,8020,0.4935751176770593
59,0,5056,8020,0.8300396568410818
60,0,4971,3849,0.4628678608924497
61,0,4047,5815,0.1622267562301365
62,0,3733,5815,0.11236327892774023
63,0,4071,5815,0.2658077403083542
64,0,5071,4513,0.28899842548047416
65,0,5323,4857,0.7089940425624303
66,0,5244,4626,0.44389409327782503
