ID,agentTime,agentX,agentY,agentLAMBDA
0,0,5202,4346,0.8856515100874827
1,0,4854,4070,0.8901103644454704
2,0,4718,7750,0.39022170703119974
3,0,5184,6525,0.16914958220135567
4,0,5184,6521,0.7251956380465705
5,0,5184,6526,0.8152187805672375
6,0,5184,6711,0.14432431105313293
7,0,5184,6379,0.12973221410830893
8,0,4872,6449,0.7666097221635603
9,0,4790,6711,0.597028683611254
10,0,4673,7571,0.2526821031315817
11,0,5354,8020,0.791391361727224
12,0,4999,7757,0.8016326354231508
13,0,5354,8020,0.19851578154453542
14,0,5069,8020,0.19324443690805415
15,0,5354,7867,0.5598601249074444
16,0,5354,7706,0.6656013405661363
17,0,5037,8020,0.4823082769584659
18,0,5354,7656,0.38468374482830237
19,0,5178,7805,0.8318928244398608
20,0,5354,7832,0.29488390674037945
21,0,5096,7898,0.12625475896086025
22,0,5354,7951,0.4080164984733782
23,0,3695,5787,0.6940120360553658
24,0,4071,5815,0.10831192575562698
25,0,4071,5815,0.3910361779584878
26,0,3671,5692,0.4792652173902444
27,0,4071,5815,0.5216987182244068
28,0,3840,5815,0.34132847003399425
29,0,3686,5592,0.14064180691887984
