ID,agentTime,agentX,agentY,agentLAMBDA
0,0,5202,4133,0.54593274453036
1,0,5202,4346,0.12513196037487417
2,0,5202,4025,0.6181536278587019
3,0,4824,4346,0.8362289321368009
4,0,4992,4009,0.29326661241190866
5,0,4682,4522,0.5486325775542419
6,0,4608,4793,0.1260984869960845
7,0,4682,4539,0.10451932634809336
8,0,4518,4793,0.10439172538979358
9,0,4446,4424,0.6776336160433519
10,0,4354,4460,0.7870634601986691
11,0,4682,4716,0.4384316360648771
12,0,4682,4793,0.1091551848488036
13,0,4682,4793,0.8337123628858119
14,0,4573,4465,0.6705815377368873
15,0,4342,4686,0.37318552575490493
16,0,4373,4793,0.8770462346902353
17,0,4410,4793,0.2306410064863047
18,0,4682,4793,0.8922597201303876
19,0,4682,4793,0.833863241676149
20,0,4682,4793,0.21174803180759083
21,0,4682,4687,0.1842769286329201
22,0,4682,4793,0.5134083391374292
23,0,4682,4793,0.6980960816989848
24,0,4647,4649,0.2579060381479652
25,0,4870,7831,0.4152272606348947
26,0,4870,7860,0.3504524036889224
27,0,4692,7482,0.626401567095816
28,0,4870,7801,0.3851091575612524
29,0,4605,7670,0.6777850327423681
30,0,4870,7860,0.7058721674839733
31,0,5184,6668,0.4517467637560083
32,0,4835,6382,0.6226357949164594
33,0,4903,6522,0.8119661259429043
34,0,5184,6711,0.2505142699049292
35,0,4952,6424,0.4392068453426472
36,0,4821,6629,0.5868434752708732
37,0,4849,6711,0.12922555914331701
38,0,5138,6711,0.3434725540231758
39,0,4807,6640,0.8110979227605079
40,0,5184,6387,0.27960812599839946
41,0,5184,6711,0.2746235294800098
42,0,4849,6711,0.7760042382080528
43,0,4956,4690,0.20571055055870924
44,0,4956,4677,0.3002420730168478
45,0,4849,4786,0.10003128573491948
46,0,4956,4654,0.7493013045259105
47,0,4956,4786,0.8259309561061869
48,0,4956,4786,0.1312360036118857
49,0,4956,4786,0.44513002619794584
50,0,4805,4786,0.7095091704265709
51,0,4586,4786,0.6413823156544389
52,0,4841,4786,0.8057530617226286
53,0,4956,4786,0.6717313062154097
54,0,4889,4586,0.1238808386578164
55,0,4956,4786,0.44519186258635357
56,0,4691,4731,0.46114077728437475
57,0,5229,7245,0.3084369513216111
58,0,4573,7776,0.7198617391752585
59,0,4931,7776,0.46649317983535865
60,0,4931,7776,0.560400452053738
61,0,4662,7776,0.4685871160092818
62,0,4931,7776,0.8376058548033947
63,0,4931,7776,0.5726215550088294
64,0,4833,7496,0.24864964562609881
65,0,4873,7776,0.43703057269759704
66,0,4931,7531,0.6080423330604301
67,0,5266,3474,0.26977644771784903
68,0,5175,3727,0.11485033585654547
69,0,5449,3496,0.5231168244602805
70,0,5271,3727,0.18564647346735053
71,0,5142,3727,0.41589708145610116
72,0,5259,3727,0.4249417261161318
73,0,5449,3463,0.5082952559827404
74,0,4945,7630,0.8391036321291021
75,0,4945,7630,0.43562174572215484
76,0,4945,7460,0.2684504470254935
77,0,4945,7630,0.34358210575234505
78,0,4945,7322,0.7357519572152887
79,0,4945,7630,0.8893296417524947
80,0,4830,4920,0.6390474326862394
81,0,4596,4920,0.6586446537333713
82,0,4830,4604,0.7968597918591943
83,0,4714,4728,0.8785826575404788
84,0,4792,4920,0.6660263304670436
85,0,4830,4796,0.5407483662723689
86,0,4830,4920,0.7650917876854149
87,0,4567,4673,0.6789328894578531
88,0,4597,4920,0.8095495300519127
89,0,4495,4920,0.14154199388182598
90,0,4830,4829,0.7898520648389015
91,0,4742,4920,0.8624277822461893
92,0,4618,4920,0.8692790621624575
93,0,4704,4920,0.3168383973142058
94,0,5144,3752,0.8095279740410107
95,0,4854,3772,0.4406815566918746
96,0,5200,3911,0.7678002899517266
97,0,4845,3817,0.8723247862570258
98,0,5200,4083,0.6991218365759426
99,0,4868,3953,0.5277411781249121
100,0,4071,5815,0.4771775400957715
101,0,4071,5529,0.386625557393412
102,0,4071,5815,0.7082344258634634
103,0,3900,5815,0.22994197902231417
104,0,5110,3817,0.8470000516798288
105,0,5011,7360,0.6626586567109344
106,0,5114,7293,0.3549608506903371
107,0,4784,4760,0.8827258959487794
108,0,4784,4592,0.1982363255837637
109,0,4679,4557,0.3630753652913371
110,0,4529,4628,0.5818360318719247
111,0,4417,4710,0.3218394257059203
112,0,4668,4760,0.5975056445750754
113,0,4784,4668,0.8061742040279185
114,0,4784,4760,0.49024240764622873
115,0,4784,4415,0.6082657747326023
116,0,4448,4425,0.3925079906368798
117,0,4423,4760,0.7908854381780757
118,0,4784,4760,0.5041749474016143
119,0,4784,4760,0.5394238386651555
120,0,4683,4760,0.21620375099291966
121,0,4784,4760,0.15943963627374746
122,0,4826,5077,0.504459897405389
123,0,4548,5354,0.6552752535493411
124,0,5324,5066,0.3101148280580054
125,0,5187,5174,0.7130100161948185
126,0,5324,5138,0.23119620743971536
127,0,5324,5174,0.4052064773734181
128,0,5324,5004,0.7643666368942045
129,0,5324,5174,0.1783069343968029
130,0,5007,5073,0.6873830153097771
131,0,5324,4961,0.7497574783811893
132,0,4476,4189,0.2255025899347095
133,0,4435,4189,0.24370311359462826
134,0,4769,4065,0.2633866611043657
135,0,4769,4189,0.6579028423110036
136,0,4618,3844,0.1772823531234522
137,0,4450,4092,0.7597477974015586
138,0,4769,4189,0.48398364078329636
139,0,4769,4046,0.3807020426903498
140,0,4539,4189,0.2657291707863725
141,0,4919,7384,0.5754958160594058
142,0,5210,7627,0.3945431240464642
143,0,5210,7712,0.738986740873592
144,0,4927,7712,0.16782819271859672
145,0,4947,7930,0.13767524669682818
146,0,4496,4028,0.8157617074782728
147,0,4745,4267,0.10942760658728479
148,0,4745,4267,0.3749775690735381
149,0,4745,3952,0.8063582786132241
150,0,4745,3960,0.6394538085346768
151,0,4580,4267,0.5105642758640597
152,0,4745,4267,0.6157433770942039
153,0,4745,4267,0.44532662283283886
154,0,4745,4267,0.5018418831240252
