ID,agentTime,agentX,agentY,agentLAMBDA
0,0,5202,4346,0.6454561785952535
1,0,5202,4346,0.28392118553189505
2,0,5202,4346,0.42516894539861894
3,0,5096,4318,0.32191837488886943
4,0,4855,4133,0.7434636318177195
5,0,4956,4506,0.1647063537657002
6,0,4956,4695,0.10752388556461989
7,0,4848,4594,0.589097908833493
8,0,4956,4459,0.1152433760550795
9,0,4588,4786,0.27795155707258135
10,0,4956,4474,0.356817489596437
11,0,5105,7600,0.6055581896272372
12,0,5295,7600,0.3369727661860207
13,0,5295,7600,0.46117956361762447
14,0,5151,7250,0.3894491580205909
15,0,4618,7776,0.3648773376223081
16,0,5354,8020,0.6815238138543565
17,0,5200,4009,0.673432442451714
18,0,5200,4083,0.8480872640862496
19,0,4875,3762,0.69492458955787
20,0,5083,4083,0.8072396777936738
21,0,5024,4083,0.8038991721937885
22,0,5200,3789,0.854537047733875
23,0,5200,3800,0.8977084370123162
24,0,5200,4083,0.6588853315843534
25,0,5200,3746,0.19745521494972662
26,0,5200,4083,0.2064897849022368
27,0,4897,3837,0.7457104088871725
28,0,5200,3993,0.6438388984205661
29,0,4988,3742,0.5498975392848361
30,0,5129,3899,0.8523788996758077
31,0,5096,3919,0.5022699450848318
32,0,4800,4049,0.715733089514753
33,0,5200,4083,0.5640666359801639
34,0,4557,5256,0.3898409461387272
35,0,4826,5144,0.28264846562640433
36,0,4794,5120,0.6366221992315653
37,0,5017,4857,0.769620890215606
38,0,5323,4576,0.7674501792346001
39,0,5323,4857,0.12597859523537636
40,0,5323,4857,0.4348845053832199
41,0,5171,4857,0.8713256793406446
42,0,5323,4857,0.5033219822067115
43,0,5323,4834,0.2477818403257268
44,0,5323,4813,0.4441769720106471
45,0,5323,4857,0.6432859304519571
46,0,5111,7712,0.37291627161065644
47,0,5210,7351,0.6861900395391471
