ID,agentTime,agentX,agentY,agentLAMBDA
0,0,5114,7616,0.15877790010852066
1,0,5114,7616,0.5444800975474758
2,0,5114,7616,0.7265734771163319
3,0,4859,7252,0.5561344733782134
4,0,5114,7268,0.3579727284917936
5,0,5049,7391,0.7763329820068976
6,0,5114,7216,0.4701563541805005
7,0,5114,7616,0.2757966221807012
8,0,4807,7616,0.4680416965266124
9,0,5114,7512,0.18683815604955056
10,0,4720,7616,0.4309576722178887
11,0,5114,7616,0.6740877623501218
12,0,5114,7616,0.597491128784074
13,0,5114,7373,0.8775265207065407
14,0,4858,7616,0.3013365403744648
15,0,5114,7616,0.3794480839937575
16,0,5114,7336,0.6519388456263867
17,0,5114,7616,0.8257828151383614
18,0,5114,7616,0.4974523771100432
19,0,4814,7406,0.35822237576341465
20,0,5114,7616,0.30137422414867365
21,0,5114,7239,0.5780959720892915
22,0,4803,7551,0.28221353364869006
23,0,4899,7276,0.5482381077431865
24,0,5114,7416,0.8771042472191666
25,0,4843,7616,0.36522732887063347
26,0,4747,7253,0.37402451036208084
27,0,5114,7616,0.3717689752967922
28,0,5114,7616,0.6685543336800431
29,0,5114,7572,0.5681051226351693
30,0,5114,7288,0.799902386627006
31,0,5114,7240,0.13418971694532222
32,0,5114,7582,0.2733605043619044
33,0,5114,7616,0.27546826183090845
34,0,5114,7616,0.6900982919186096
35,0,5114,7531,0.3867370564281002
36,0,5114,7616,0.41631066188368626
37,0,4960,7354,0.4738143768337866
38,0,5114,7616,0.4721836109325399
39,0,4880,7274,0.34420763545651645
40,0,5114,7616,0.11387389431984374
41,0,4855,7407,0.8444257885097348
42,0,4805,7551,0.13723643004254715
43,0,5114,7287,0.5885196974046748
44,0,5114,7616,0.5593335762701088
45,0,5114,7443,0.2662910790543338
46,0,4792,7431,0.46820323063094726
47,0,5114,7220,0.6040196939616445
48,0,5114,7440,0.32782520310318375
49,0,5114,7616,0.25921205777583756
50,0,4973,7616,0.5016093855635216
51,0,5023,7616,0.18448481288949248
52,0,4874,7326,0.6156014435371207
53,0,5092,7616,0.43609262347396316
54,0,4940,7616,0.7685575032322662
55,0,5114,7562,0.109790295731798
