ID,agentTime,agentX,agentY,agentLAMBDA
0,0,4878,4346,0.623887229519519
1,0,5202,4024,0.8585167813382825
2,0,5202,4234,0.309660116211392
3,0,5142,4088,0.7958882924871743
4,0,5112,4042,0.5574235609226962
5,0,4955,4311,0.6287976549710941
6,0,5084,4346,0.6273711669856035
7,0,5128,4062,0.8859373344206727
8,0,5202,3963,0.2738504107265134
9,0,5202,4260,0.717001606972731
10,0,4888,4010,0.47074628545377584
11,0,4964,4346,0.65650901234068
12,0,5202,4226,0.22689172987635786
13,0,5252,7522,0.12256508885508233
14,0,5242,7335,0.5287369330436488
15,0,5295,7600,0.4618909853092451
16,0,5295,7600,0.1842159137960877
17,0,5295,7600,0.30975760832983157
18,0,5207,7600,0.285080421937433
19,0,4931,7776,0.6370937327728255
20,0,4931,7641,0.5856555462150773
21,0,4931,7776,0.6943169244012709
22,0,4709,4303,0.5565841344149024
23,0,4935,7639,0.3266715754501045
24,0,4693,7781,0.4521513228074011
25,0,4820,7684,0.327385073258184
26,0,4767,7733,0.1877623162051243
27,0,5311,7999,0.8691054475537573
28,0,5200,4083,0.6493330288565129
29,0,5200,4083,0.1633202000638443
30,0,5200,3744,0.6632227206522888
31,0,5200,4083,0.1361327884227288
32,0,5200,3730,0.7358020480666134
33,0,5200,3947,0.2263733621573143
34,0,5200,4083,0.1267018351104373
35,0,4936,3998,0.2285794159317457
36,0,5200,4083,0.7974930840795027
37,0,5200,4036,0.5533558332325033
38,0,5200,4083,0.6955352784459806
39,0,5200,3762,0.5638020573569626
40,0,5200,3962,0.15900405239362336
41,0,5200,3954,0.6578769165087129
42,0,4847,3825,0.1348611782475564
43,0,5200,4083,0.6721634166558572
44,0,4811,3752,0.6104262871562226
45,0,4923,4083,0.5863003133379735
46,0,4998,3839,0.18840024094624697
47,0,3822,5497,0.3735910508181405
48,0,5114,7616,0.4651800334929608
49,0,5071,4484,0.6995205919380587
