ID,agentTime,agentX,agentY,agentLAMBDA
0,0,4910,4156,0.5831498581784716
1,0,5020,4346,0.5370859163808098
2,0,4901,4346,0.25653293969445146
3,0,5202,4346,0.6001513734476435
4,0,5202,4346,0.34812190553367595
5,0,5202,4346,0.7096544153810144
6,0,5202,4255,0.7109650068498962
7,0,5202,4346,0.7422158898192326
8,0,3636,5327,0.8686883355465032
9,0,4684,7639,0.569633049734023
10,0,4840,7623,0.8233058057846878
11,0,4870,7860,0.2630449041354962
12,0,4870,7656,0.3108258053444628
13,0,5184,6711,0.4825542196011704
14,0,5184,6459,0.2871867987200257
15,0,4918,6711,0.35907258285870336
16,0,5184,6489,0.7038384701179541
17,0,5184,6639,0.2632085756386061
18,0,4857,6365,0.6673096677605711
19,0,5184,6469,0.7952354073770372
20,0,5111,6579,0.4536771651752374
21,0,5184,6711,0.3707425166720729
22,0,5044,6373,0.6406384462275175
23,0,4872,6654,0.5255524054047871
24,0,4862,6711,0.16450954559786168
25,0,5184,6711,0.3916823192984453
26,0,5184,6711,0.2466045537681173
27,0,3612,5191,0.7168834585377766
28,0,3674,4841,0.5176115231496203
29,0,4956,4545,0.7165245904365563
30,0,4622,4786,0.1760360198548523
31,0,4956,4786,0.4613535232093827
32,0,4844,4501,0.2931014938572106
33,0,4597,4692,0.8987496567749863
34,0,4808,7776,0.18372473452184523
35,0,4571,7776,0.693993276956002
36,0,4830,4920,0.898614671140862
37,0,4496,4920,0.3692891833212807
38,0,4549,4920,0.18257354234538725
39,0,4830,4729,0.6141445610917243
40,0,4830,4602,0.38195805516662007
41,0,4560,4920,0.6282049579186378
42,0,4901,7781,0.3635148831989722
43,0,5068,7714,0.812499810429005
44,0,5144,7371,0.19520617085244008
45,0,4634,4760,0.5063461268930538
46,0,4732,4760,0.13466272579179306
