ID,agentTime,agentX,agentY,agentLAMBDA
0,0,3413,4895,0.6081432359269223
1,0,3750,5339,0.7897104049769812
2,0,4704,7544,0.4898985304601441
3,0,4931,7776,0.540049056992747
4,0,4786,7776,0.4485641351389149
5,0,4957,7371,0.17139777668560707
6,0,4970,7435,0.607501328561057
