Name,L_Y,L_X,Capacity
Accu,47.415040,8.540750,194
Albisriederplatz,47.379602,8.508361,66
Bleicherweg,47.367650,8.535523,275
Center Eleven,47.413054,8.540332,342
Central,47.412713,8.539474,40
City Parking,47.374450,8.533871,620
Cityport,47.411154,8.540694,153
Crowne Plaza,47.381360,8.506820,520
Dorflinde,47.407802,8.548668,98
Eisfeld,47.416211,8.551274,240
Feldegg,47.360658,8.553726,323
Globus,47.376091,8.537700,149
Hardau 2,47.381519,8.509761,982
Hauptbahnhof,47.381708,8.537596,176
Hohe Promenade,47.368674,8.547329,556
Jelmoli,47.374026,8.536515,222
Jungholz,47.413118,8.543863,134
Max-Bill-Platz,47.414138,8.538755,83
Messe,47.414084,8.553395,2000
Nordhaus,47.412226,8.547554,175
Octavo,47.413899,8.536458,123
Opera,47.365273,8.547276,299
P West,47.392053,8.511326,1000
Park Hyatt,47.366642,8.536142,267
Parkside,47.412713,8.539474,38
Pfingstweid,47.387681,8.518078,276
Stampfenbach,47.387091,8.539051,237
Talgarten,47.372515,8.535703,110
Theater 11,47.410771,8.549733,188
USZ-Nord,47.379385,8.550491,132
USZ-Süd,47.375280,8.550466,80
Uni Irchel,47.399264,8.546860,1227
Urania,47.374362,8.540977,607
Utoquai,47.361825,8.548581,175
Züri11 Shopping,47.410975,8.545052,60
Zürichhorn,47.356267,8.553597,245
