Iteration,Run-0,Run-1,Run-2,Run-3,Run-4,Run-5,Run-6,Run-7,Run-8,Run-9
0,0.0,0.0,0.0,0.0,0.0,0.0,0.0,0.0,0.0,0.0
1,0.0,0.0,0.0,0.0,0.0,0.0,0.0,0.0,0.0,0.0
2,0.0,0.0,0.0,0.0,0.0,0.0,0.0,0.0,0.0,0.0
3,0.0,0.0,0.0,0.0,0.0,0.0,0.0,0.0,0.0,0.0
4,0.0,0.0,0.0,0.0,0.0,0.0,0.0,0.0,0.0,0.0
5,0.0,0.0,0.0,0.0,0.0,0.0,0.0,0.0,0.0,0.0
6,0.0,0.0,0.0,0.0,0.0,0.0,0.0,0.0,0.0,0.0
7,0.0,0.0,0.0,0.0,0.0,0.0,0.0,0.0,0.0,0.0
8,0.0,0.0,0.0,0.0,0.0,0.0,0.0,0.0,0.0,0.0
9,0.0,0.0,0.0,0.0,0.0,0.0,0.0,0.0,0.0,0.0
10,0.0,0.0,0.0,0.0,0.0,0.0,0.0,0.0,0.0,0.0
11,0.0,0.0,0.0,0.0,0.0,0.0,0.0,0.0,0.0,0.0
12,0.0,0.0,0.0,0.0,0.0,0.0,0.0,0.0,0.0,0.0
13,0.0,0.0,0.0,0.0,0.0,0.0,0.0,0.0,0.0,0.0
14,0.0,0.0,0.0,0.0,0.0,0.0,0.0,0.0,0.0,0.0
15,0.0,0.0,0.0,0.0,0.0,0.0,0.0,0.0,0.0,0.0
16,0.0,0.0,0.0,0.0,0.0,0.0,0.0,0.0,0.0,0.0
17,0.0,0.0,0.0,0.0,0.0,0.0,0.0,0.0,0.0,0.0
18,0.0,0.0,1.0,0.0,0.0,0.0,0.0,0.0,1.0,0.0
19,0.0,0.0,1.0,0.0,1.0,0.0,0.0,0.0,1.0,0.0
20,1.0,1.0,1.0,1.0,1.0,0.0,0.0,0.0,1.0,1.0
21,1.0,1.0,1.0,1.0,1.0,1.0,1.0,0.0,1.0,1.0
22,1.0,1.0,1.0,1.0,1.0,1.0,1.0,0.0,1.0,1.0
23,1.0,1.0,1.0,1.0,1.0,1.0,1.0,0.0,1.0,1.0
24,1.0,1.0,1.0,1.0,1.0,1.0,1.0,0.0,1.0,1.0
25,1.0,1.0,1.0,1.0,1.0,1.0,1.0,1.0,1.0,1.0
26,1.0,1.0,1.0,1.0,1.0,1.0,1.0,1.0,1.0,1.0
27,1.0,1.0,1.0,1.0,1.0,1.0,1.0,1.0,1.0,1.0
28,1.0,1.0,2.0,1.0,1.0,1.0,1.0,1.0,2.0,1.0
29,1.0,1.0,2.0,1.0,1.0,1.0,1.0,1.0,2.0,1.0
30,2.0,1.0,2.0,1.0,2.0,1.0,1.0,1.0,2.0,2.0
31,2.0,1.0,2.0,1.0,2.0,1.0,2.0,1.0,2.0,2.0
32,2.0,1.0,2.0,2.0,3.0,1.0,2.0,1.0,2.0,2.0
33,2.0,1.0,3.0,2.0,3.0,1.0,2.0,1.0,2.0,2.0
34,2.0,1.0,3.0,2.0,4.0,1.0,2.0,1.0,3.0,2.0
35,2.0,2.0,4.0,3.0,4.0,2.0,2.0,1.0,3.0,2.0
36,2.0,2.0,4.0,3.0,5.0,2.0,2.0,1.0,4.0,2.0
37,3.0,3.0,5.0,4.0,5.0,2.0,3.0,1.0,4.0,3.0
38,3.0,3.0,5.0,4.0,6.0,3.0,3.0,1.0,5.0,3.0
39,4.0,4.0,6.0,5.0,6.0,3.0,4.0,1.0,5.0,4.0
