Iteration,Mean,Stdev,Run-0,Run-1,Run-2,Run-3,Run-4,Run-5,Run-6,Run-7,Run-8,Run-9
0,0.5582805138638499,0.003477325116726457,0.55990130316025,0.55674026727725,0.5537068543102499,0.55947609601825,0.5631731406395,0.5534684297979999,0.55947609601825,0.5537068543102499,0.560486809463,0.5626692876435
1,0.5599334589025,NaN,0.5599334589025,0.5599334589025,0.5599334589025,0.5599334589025,0.5599334589025,0.5599334589025,0.5599334589025,0.5599334589025,0.5599334589025,0.5599334589025
2,0.5599334589025,NaN,0.5599334589025,0.5599334589025,0.5599334589025,0.5599334589025,0.5599334589025,0.5599334589025,0.5599334589025,0.5599334589025,0.5599334589025,0.5599334589025
3,0.5599334589025,NaN,0.5599334589025,0.5599334589025,0.5599334589025,0.5599334589025,0.5599334589025,0.5599334589025,0.5599334589025,0.5599334589025,0.5599334589025,0.5599334589025
4,0.5599334589025,NaN,0.5599334589025,0.5599334589025,0.5599334589025,0.5599334589025,0.5599334589025,0.5599334589025,0.5599334589025,0.5599334589025,0.5599334589025,0.5599334589025
5,0.5599334589025,NaN,0.5599334589025,0.5599334589025,0.5599334589025,0.5599334589025,0.5599334589025,0.5599334589025,0.5599334589025,0.5599334589025,0.5599334589025,0.5599334589025
6,0.5599334589025,NaN,0.5599334589025,0.5599334589025,0.5599334589025,0.5599334589025,0.5599334589025,0.5599334589025,0.5599334589025,0.5599334589025,0.5599334589025,0.5599334589025
7,0.5599334589025,NaN,0.5599334589025,0.5599334589025,0.5599334589025,0.5599334589025,0.5599334589025,0.5599334589025,0.5599334589025,0.5599334589025,0.5599334589025,0.5599334589025
8,0.5599334589025,NaN,0.5599334589025,0.5599334589025,0.5599334589025,0.5599334589025,0.5599334589025,0.5599334589025,0.5599334589025,0.5599334589025,0.5599334589025,0.5599334589025
9,0.5599334589025,NaN,0.5599334589025,0.5599334589025,0.5599334589025,0.5599334589025,0.5599334589025,0.5599334589025,0.5599334589025,0.5599334589025,0.5599334589025,0.5599334589025
10,0.5599334589025,NaN,0.5599334589025,0.5599334589025,0.5599334589025,0.5599334589025,0.5599334589025,0.5599334589025,0.5599334589025,0.5599334589025,0.5599334589025,0.5599334589025
11,0.5599334589025,NaN,0.5599334589025,0.5599334589025,0.5599334589025,0.5599334589025,0.5599334589025,0.5599334589025,0.5599334589025,0.5599334589025,0.5599334589025,0.5599334589025
12,0.5599334589025,NaN,0.5599334589025,0.5599334589025,0.5599334589025,0.5599334589025,0.5599334589025,0.5599334589025,0.5599334589025,0.5599334589025,0.5599334589025,0.5599334589025
13,0.5599334589025,NaN,0.5599334589025,0.5599334589025,0.5599334589025,0.5599334589025,0.5599334589025,0.5599334589025,0.5599334589025,0.5599334589025,0.5599334589025,0.5599334589025
14,0.5599334589025,NaN,0.5599334589025,0.5599334589025,0.5599334589025,0.5599334589025,0.5599334589025,0.5599334589025,0.5599334589025,0.5599334589025,0.5599334589025,0.5599334589025
15,0.5599334589025,NaN,0.5599334589025,0.5599334589025,0.5599334589025,0.5599334589025,0.5599334589025,0.5599334589025,0.5599334589025,0.5599334589025,0.5599334589025,0.5599334589025
16,0.5599334589025,NaN,0.5599334589025,0.5599334589025,0.5599334589025,0.5599334589025,0.5599334589025,0.5599334589025,0.5599334589025,0.5599334589025,0.5599334589025,0.5599334589025
17,0.5599334589025,NaN,0.5599334589025,0.5599334589025,0.5599334589025,0.5599334589025,0.5599334589025,0.5599334589025,0.5599334589025,0.5599334589025,0.5599334589025,0.5599334589025
18,0.5599334589025,NaN,0.5599334589025,0.5599334589025,0.5599334589025,0.5599334589025,0.5599334589025,0.5599334589025,0.5599334589025,0.5599334589025,0.5599334589025,0.5599334589025
19,0.5599334589025,NaN,0.5599334589025,0.5599334589025,0.5599334589025,0.5599334589025,0.5599334589025,0.5599334589025,0.5599334589025,0.5599334589025,0.5599334589025,0.5599334589025
20,0.5599334589025,NaN,0.5599334589025,0.5599334589025,0.5599334589025,0.5599334589025,0.5599334589025,0.5599334589025,0.5599334589025,0.5599334589025,0.5599334589025,0.5599334589025
21,0.5599334589025,NaN,0.5599334589025,0.5599334589025,0.5599334589025,0.5599334589025,0.5599334589025,0.5599334589025,0.5599334589025,0.5599334589025,0.5599334589025,0.5599334589025
22,0.5599334589025,NaN,0.5599334589025,0.5599334589025,0.5599334589025,0.5599334589025,0.5599334589025,0.5599334589025,0.5599334589025,0.5599334589025,0.5599334589025,0.5599334589025
23,0.5599334589025,NaN,0.5599334589025,0.5599334589025,0.5599334589025,0.5599334589025,0.5599334589025,0.5599334589025,0.5599334589025,0.5599334589025,0.5599334589025,0.5599334589025
24,0.5599334589025,NaN,0.5599334589025,0.5599334589025,0.5599334589025,0.5599334589025,0.5599334589025,0.5599334589025,0.5599334589025,0.5599334589025,0.5599334589025,0.5599334589025
25,0.5599334589025,NaN,0.5599334589025,0.5599334589025,0.5599334589025,0.5599334589025,0.5599334589025,0.5599334589025,0.5599334589025,0.5599334589025,0.5599334589025,0.5599334589025
26,0.5599334589025,NaN,0.5599334589025,0.5599334589025,0.5599334589025,0.5599334589025,0.5599334589025,0.5599334589025,0.5599334589025,0.5599334589025,0.5599334589025,0.5599334589025
27,0.5599334589025,NaN,0.5599334589025,0.5599334589025,0.5599334589025,0.5599334589025,0.5599334589025,0.5599334589025,0.5599334589025,0.5599334589025,0.5599334589025,0.5599334589025
28,0.5599334589025,NaN,0.5599334589025,0.5599334589025,0.5599334589025,0.5599334589025,0.5599334589025,0.5599334589025,0.5599334589025,0.5599334589025,0.5599334589025,0.5599334589025
29,0.5599334589025,NaN,0.5599334589025,0.5599334589025,0.5599334589025,0.5599334589025,0.5599334589025,0.5599334589025,0.5599334589025,0.5599334589025,0.5599334589025,0.5599334589025
30,0.5599334589025,NaN,0.5599334589025,0.5599334589025,0.5599334589025,0.5599334589025,0.5599334589025,0.5599334589025,0.5599334589025,0.5599334589025,0.5599334589025,0.5599334589025
31,0.5599334589025,NaN,0.5599334589025,0.5599334589025,0.5599334589025,0.5599334589025,0.5599334589025,0.5599334589025,0.5599334589025,0.5599334589025,0.5599334589025,0.5599334589025
32,0.5599334589025,NaN,0.5599334589025,0.5599334589025,0.5599334589025,0.5599334589025,0.5599334589025,0.5599334589025,0.5599334589025,0.5599334589025,0.5599334589025,0.5599334589025
33,0.5599334589025,NaN,0.5599334589025,0.5599334589025,0.5599334589025,0.5599334589025,0.5599334589025,0.5599334589025,0.5599334589025,0.5599334589025,0.5599334589025,0.5599334589025
34,0.5599334589025,NaN,0.5599334589025,0.5599334589025,0.5599334589025,0.5599334589025,0.5599334589025,0.5599334589025,0.5599334589025,0.5599334589025,0.5599334589025,0.5599334589025
35,0.5599334589025,NaN,0.5599334589025,0.5599334589025,0.5599334589025,0.5599334589025,0.5599334589025,0.5599334589025,0.5599334589025,0.5599334589025,0.5599334589025,0.5599334589025
36,0.5599334589025,NaN,0.5599334589025,0.5599334589025,0.5599334589025,0.5599334589025,0.5599334589025,0.5599334589025,0.5599334589025,0.5599334589025,0.5599334589025,0.5599334589025
37,0.5599334589025,NaN,0.5599334589025,0.5599334589025,0.5599334589025,0.5599334589025,0.5599334589025,0.5599334589025,0.5599334589025,0.5599334589025,0.5599334589025,0.5599334589025
38,0.5599334589025,NaN,0.5599334589025,0.5599334589025,0.5599334589025,0.5599334589025,0.5599334589025,0.5599334589025,0.5599334589025,0.5599334589025,0.5599334589025,0.5599334589025
39,0.5599334589025,NaN,0.5599334589025,0.5599334589025,0.5599334589025,0.5599334589025,0.5599334589025,0.5599334589025,0.5599334589025,0.5599334589025,0.5599334589025,0.5599334589025
